<?xml version="1.0" encoding="utf-8"?>
<!-- Generator: Adobe Illustrator 23.1.1, SVG Export Plug-In . SVG Version: 6.00 Build 0)  -->
<svg version="1.1" id="レイヤー_1" xmlns="http://www.w3.org/2000/svg" xmlns:xlink="http://www.w3.org/1999/xlink" x="0px"
	 y="0px" width="211.3px" height="82.5px" viewBox="0 0 211.3 82.5" style="enable-background:new 0 0 211.3 82.5;"
	 xml:space="preserve">
<style type="text/css">
	.st0{clip-path:url(#SVGID_2_);fill:#005BAC;}
</style>
<g>
	<defs>
		<rect id="SVGID_1_" y="0" width="211.3" height="82.5"/>
	</defs>
	<clipPath id="SVGID_2_">
		<use xlink:href="#SVGID_1_"  style="overflow:visible;"/>
	</clipPath>
	<path class="st0" d="M7,66c3.9,6.5,10.2,9.9,18,9.9c9.9,0,17.6-6,17.6-15.4c0-22-40.5-9.1-40.5-38.9C2.1,7.5,14.1,0,27.3,0
		c8.5,0,16.1,2.9,21.4,9.9l-6.3,4.5c-3.7-5.1-8.5-7.8-15.3-7.8c-9.4,0-17.6,4.9-17.6,14.9c0,23.6,40.5,9.4,40.5,38.9
		c0,14.2-11.6,22.1-24.4,22.1C15.2,82.5,6.1,79.2,0,70.6L7,66z"/>
	<polygon class="st0" points="66.5,2 73.9,2 73.9,36.6 117.8,36.6 117.8,2 125.1,2 125.1,80.5 117.8,80.5 117.8,43.3 73.9,43.3 
		73.9,80.5 66.5,80.5 	"/>
	<path class="st0" d="M211.3,68.2c-7.4,10.2-17.6,14.3-29.2,14.3c-24,0-40.6-17.3-40.6-41.3c0-24,16.6-41.3,40.6-41.3
		c10.6,0,20.2,3.5,27.1,12.3l-6,5C198.3,10,190,6.7,182.1,6.7c-20.5,0-33.3,15.1-33.3,34.6c0,19.5,12.8,34.6,33.3,34.6
		c7.9,0,17.6-3.8,23.2-12.2L211.3,68.2z"/>
</g>
</svg>
